<?xml version="1.0" encoding="utf-8"?>
<!-- Generator: Adobe Illustrator 20.1.0, SVG Export Plug-In . SVG Version: 6.00 Build 0)  -->
<svg version="1.1" id="Layer_1" xmlns="http://www.w3.org/2000/svg" xmlns:xlink="http://www.w3.org/1999/xlink" x="0px" y="0px"
	 viewBox="0 0 512 512" style="enable-background:new 0 0 512 512;" xml:space="preserve">
<style type="text/css">
	.st0{fill:#5D5D5D;}
</style>
<path class="st0" d="M54.864,143.473c11.649,6.254,173.016,92.953,179.031,96.176c6.015,3.223,13.797,4.75,21.627,4.75
	c7.83,0,15.612-1.528,21.627-4.75c6.015-3.223,167.382-89.921,179.031-96.176c11.673-6.278,22.701-30.698,1.289-30.698H53.599
	C32.187,112.775,43.215,137.195,54.864,143.473z M461.6,196.06c-13.248,6.899-176.334,91.879-184.45,96.128
	c-8.116,4.249-13.797,4.75-21.627,4.75s-13.511-0.501-21.627-4.75c-8.116-4.249-170.271-89.253-183.519-96.152
	c-9.31-4.87-9.214,0.835-9.214,5.228c0,4.392,0,174.09,0,174.09c0,10.026,13.511,23.871,23.871,23.871h381.933
	c10.36,0,23.871-13.845,23.871-23.871c0,0,0-169.674,0-174.066C470.838,196.896,470.933,191.191,461.6,196.06z"/>
</svg>
