<?xml version="1.0" encoding="utf-8"?>
<!-- Generator: Adobe Illustrator 20.1.0, SVG Export Plug-In . SVG Version: 6.00 Build 0)  -->
<svg version="1.1" id="Layer_1" xmlns="http://www.w3.org/2000/svg" xmlns:xlink="http://www.w3.org/1999/xlink" x="0px" y="0px"
	 viewBox="0 0 512 512" style="enable-background:new 0 0 512 512;" xml:space="preserve">
<style type="text/css">
	.st0{fill:#5E5E5E;}
</style>
<g>
	<g>
		<path class="st0" d="M300.488,137.081c19.861,12.463,33.791,33.53,36.324,58.007c8.088,3.766,17.093,5.937,26.621,5.937
			c34.79,0,63-28.19,63-62.973c0-34.81-28.21-63-63-63C328.965,75.053,301.01,102.74,300.488,137.081L300.488,137.081z
			 M259.205,266.069c34.817,0,63.006-28.19,63.006-62.999c0-34.783-28.19-62.973-63.006-62.973c-34.783,0-62.999,28.19-62.999,63
			C196.206,237.879,224.422,266.069,259.205,266.069L259.205,266.069z M285.934,270.364h-53.451
			c-44.472,0-80.669,36.197-80.669,80.669v65.385l0.181,1.018l4.503,1.414c42.428,13.247,79.309,17.67,109.669,17.67
			c59.287,0,93.628-16.886,95.773-17.985l4.188-2.117h0.449v-65.385C366.603,306.561,330.399,270.364,285.934,270.364
			L285.934,270.364z M390.156,205.347h-53.029c-0.576,21.201-9.629,40.331-23.975,54.074c39.554,11.753,68.474,48.399,68.474,91.718
			v20.129c52.372-1.916,82.552-16.752,84.542-17.75l4.188-2.144h0.469V285.99C470.825,241.518,434.628,205.347,390.156,205.347
			L390.156,205.347z M148.671,201.052c12.329,0,23.794-3.611,33.503-9.736c3.089-20.129,13.904-37.745,29.315-49.732
			c0.054-1.173,0.188-2.325,0.188-3.531c0-34.783-28.216-63-63.006-63c-34.783,0-63,28.216-63,63
			C85.672,172.836,113.888,201.052,148.671,201.052L148.671,201.052z M205.265,259.422c-14.266-13.689-23.298-32.693-23.955-53.786
			c-1.963-0.134-3.927-0.288-5.91-0.288h-53.451c-44.499,0-80.669,36.17-80.669,80.642v65.385l0.154,1.019l4.503,1.414
			c34.052,10.627,64.44,15.525,90.854,17.067V351.14C136.791,307.82,165.711,271.175,205.265,259.422L205.265,259.422z
			 M205.265,259.422"/>
	</g>
</g>
</svg>
